…
 - Histogram of the total number of steps taken each day
 
 - Mean and median number of steps taken each day
 

```r
activity %>%
  group_by(date) %>%
  summarise(mean_steps = mean(steps, na.rm = TRUE), median_steps = median(steps)) %>%
  ungroup()
```

```
## # A tibble: 61 x 3
##    date       mean_steps median_steps
##    <date>          <dbl>        <dbl>
##  1 2012-10-01    NaN               NA
##  2 2012-10-02      0.438            0
##  3 2012-10-03     39.4              0
##  4 2012-10-04     42.1              0
##  5 2012-10-05     46.2              0
##  6 2012-10-06     53.5              0
##  7 2012-10-07     38.2              0
##  8 2012-10-08    NaN               NA
##  9 2012-10-09     44.5              0
## 10 2012-10-10     34.4              0
## # ... with 51 more rows
```
…
Mean and median of `data_filled`.


```r
data_filled %>%
  group_by(date) %>%
  summarise(mean = mean(steps), median = median(steps)) %>%
  ungroup()
```

```
## # A tibble: 61 x 3
##    date         mean median
##    <date>      <dbl>  <dbl>
##  1 2012-10-01 37.4     34.1
##  2 2012-10-02  0.438    0  
##  3 2012-10-03 39.4      0  
##  4 2012-10-04 42.1      0  
##  5 2012-10-05 46.2      0  
##  6 2012-10-06 53.5      0  
##  7 2012-10-07 38.2      0  
##  8 2012-10-08 37.4     34.1
##  9 2012-10-09 44.5      0  
## 10 2012-10-10 34.4      0  
## # ... with 51 more rows
```
…
